analytical • sysrevdata
…
Dropping some of the identifying columns

pivoted_bufferstrips %>% 
  select(1,2,3,15, 16)
#> # A tibble: 13,358 x 5
#>     item_id short_title  title                         category      subcategory
#>       <dbl> <chr>        <chr>                         <chr>         <chr>      
#>  1 20641367 Aaron (2005) Invertebrate Biodiversity in… studydesign   observatio…
#>  2 20641367 Aaron (2005) Invertebrate Biodiversity in… spatialscale  catchment  
#>  3 20641367 Aaron (2005) Invertebrate Biodiversity in… spatialscale  regional   
#>  4 20641367 Aaron (2005) Invertebrate Biodiversity in… measurementq… Q1         
#>  5 20641367 Aaron (2005) Invertebrate Biodiversity in… measurementq… Q2         
#>  6 20641367 Aaron (2005) Invertebrate Biodiversity in… farmingsystem notdescrib…
#>  7 20641367 Aaron (2005) Invertebrate Biodiversity in… farmingprodu… notdescrib…
#>  8 20641367 Aaron (2005) Invertebrate Biodiversity in… vegetationty… notdescrib…
#>  9 20641367 Aaron (2005) Invertebrate Biodiversity in… striplocation riparian   
#> 10 20641367 Aaron (2005) Invertebrate Biodiversity in… stripmanagem… notdescrib…
#> # … with 13,348 more rows
…
