data-structures • sysrevdata
…
Identifying data structures

Here we provide some examples of common data structures, but these are by no means comprehensive. Data can be constructed using numerics for categorical variables, character strings encoding numerics, and booleans encoded as character strings, as in the wide example considered next.

Wide

This dataset is in wide format. We have a number of different observations associated with ‘strip management’ listed in columns. See the example datasets for more information about the data.

bufferstrips %>%
  # extract the columns that contain stripmanagement
  select(contains("stripmanagement"))
#> # A tibble: 1,072 x 20
#>    stripmanagement… stripmanagement… stripmanagement… stripmanagement…
#>    <chr>            <chr>            <chr>            <chr>           
#>  1 <NA>             <NA>             <NA>             <NA>            
#>  2 <NA>             <NA>             <NA>             <NA>            
#>  3 <NA>             <NA>             <NA>             <NA>            
#>  4 <NA>             <NA>             <NA>             <NA>            
#>  5 <NA>             <NA>             <NA>             <NA>            
#>  6 <NA>             <NA>             <NA>             <NA>            
#>  7 <NA>             <NA>             <NA>             <NA>            
#>  8 Unmanaged        <NA>             <NA>             <NA>            
#>  9 <NA>             <NA>             <NA>             <NA>            
#> 10 <NA>             <NA>             <NA>             <NA>            
#> # … with 1,062 more rows, and 16 more variables:
#> #   stripmanagement_soildisturbed <chr>,
#> #   stripmanagement_soildisturbedinfo <chr>, stripmanagement_cut <chr>,
#> #   stripmanagement_cutinfo <chr>, stripmanagement_grazed <chr>,
#> #   stripmanagement_grazedinfo <chr>, stripmanagement_harvested <chr>,
#> #   stripmanagement_harvestedinfo <chr>, stripmanagement_sownplanted <chr>,
#> #   stripmanagement_sownplantedinfo <chr>, stripmanagement_pesticide <chr>,
#> #   stripmanagement_pesticideinfo <chr>, stripmanagement_managedother <chr>,
#> #   stripmanagement_managedotherinfo <chr>, stripmanagement_notdescribed <chr>,
#> #   stripmanagement_notdescribedinfo <chr>

Each observation associated with each variable in this data set is indicated with a column that contains the name of the column if there is an association and NA if not.

bufferstrips %>%
  # extract the soil disturbed observation associated with strip management
  select("stripmanagement_soildisturbed")
#> # A tibble: 1,072 x 1
#>    stripmanagement_soildisturbed
#>    <chr>                        
#>  1 <NA>                         
#>  2 <NA>                         
#>  3 <NA>                         
#>  4 <NA>                         
#>  5 <NA>                         
#>  6 Soil disturbed               
#>  7 <NA>                         
#>  8 <NA>                         
#>  9 <NA>                         
#> 10 <NA>                         
#> # … with 1,062 more rows
…
