Machine readable • sysrevdata
…
# newly created columns
buffer_example_long %>%
  select(short_title, category_type, subcategory_type, subcategory_value)
#> # A tibble: 54 x 4
#>    short_title  category_type           subcategory_type subcategory_value
#>    <chr>        <chr>                   <chr>            <chr>            
#>  1 Aaron (2005) farmingproductionsystem notdescribed     Not described    
#>  2 Aaron (2005) farmingsystem           notdescribed     Not described    
#>  3 Aaron (2005) measurementquarter      Q1               Q1               
#>  4 Aaron (2005) measurementquarter      Q2               Q2               
#>  5 Aaron (2005) spatialscale            catchment        Catchment scale  
#>  6 Aaron (2005) spatialscale            regional         Regional scale   
#>  7 Aaron (2005) striplocation           riparian         Riparian         
#>  8 Aaron (2005) stripmanagement         notdescribed     Not described    
#>  9 Aaron (2005) studydesign             observational    Observational    
#> 10 Aaron (2005) vegetationtype          notdescribed     Not described    
#> # ... with 44 more rows
…
    values_to = "subcategory_value"
  ) %>% 
  separate(subcategory_value,
           # there are a maximum of 8 different subcategories
           into = letters[1:8],
           sep = "; ") %>% 
  pivot_longer(letters[1:8],
               values_to = "subcategory_value") %>%
  # get rid of nas
  filter(!is.na(subcategory_value)) %>%
  # drop redundant column
  select(-name) %>% 
  # from here is just for display
  select(short_title, category_type, subcategory_value)
#> # A tibble: 59 x 3
#>    short_title  category_type           subcategory_value
#>    <chr>        <chr>                   <chr>            
#>  1 Aaron (2005) farmingproductionsystem Not described    
#>  2 Aaron (2005) farmingsystem           Not described    
#>  3 Aaron (2005) measurementquarter      Q1               
#>  4 Aaron (2005) measurementquarter      Q2               
#>  5 Aaron (2005) spatialscale            Catchment scale  
#>  6 Aaron (2005) spatialscale            Regional scale   
#>  7 Aaron (2005) striplocation           Riparian         
#>  8 Aaron (2005) stripmanagement         Not described    
#>  9 Aaron (2005) studydesign             Observational    
#> 10 Aaron (2005) vegetationtype          Not described    
#> # ... with 49 more rows

summarising

Now we have our data in long-form, we can perform various analyses.

We might be interested in the number of countries in the systematic review, in which case we can use the original data.

bufferstrips %>% 
  count(study_country)
#> # A tibble: 112 x 2
#>    study_country                               n
#>    <chr>                                   <int>
#>  1 Alberta, Canada                             1
#>  2 Argentina                                   5
#>  3 Arkansas, Kentucky and Mississippi, USA     1
#>  4 Arkansas, USA                               5
#>  5 Austria                                     3
#>  6 Belgium                                    15
#>  7 British Columbia, Canada                    4
#>  8 California, USA                             6
#>  9 Central and eastern USA                     1
#> 10 Central district, Russia                    1
#> # ... with 102 more rows
…
