narrative • sysrevdata
…
The output is a condensed datatable suitable for inclusion in a manuscript, with a minimum number of columns, no unnecessary white space, designed specifically to be easily digestible by the reader. In the interests of 
, review authors should also make the underlying data freely accessible in a widely usable and easily understandable format, not solely in text form.

condensing from long data

Suppose we start with long-format data in a 
 format, where each row is an independent observation for a specific study: in the case of systematic maps, this could be each outcome measured using a different method, for example. In the interests of space, we’ll show the title, category, and subcategory: the columns that don’t require condensing remain the same.

For this section, we’ll use the long format of the bufferstrips dataset, using the dataframe created in the vignette on creating long-form datasets.

buffer_example_long %>% 
  # in the interests of space, we'll just show the relevant columns
  select(short_title, category, subcategory)
#> # A tibble: 54 x 3
#>    short_title  category                subcategory    
#>    <chr>        <chr>                   <chr>          
#>  1 Aaron (2005) farmingproductionsystem Not described  
#>  2 Aaron (2005) farmingsystem           Not described  
#>  3 Aaron (2005) measurementquarter      Q1             
#>  4 Aaron (2005) measurementquarter      Q2             
#>  5 Aaron (2005) spatialscale            Catchment scale
#>  6 Aaron (2005) spatialscale            Regional scale 
#>  7 Aaron (2005) striplocation           Riparian       
#>  8 Aaron (2005) stripmanagement         Not described  
#>  9 Aaron (2005) studydesign             Observational  
#> 10 Aaron (2005) vegetationtype          Not described  
#> # ... with 44 more rows
…
